…
# project also rankings

```
## # A tibble: 21 x 3
## # Groups:   country [7]
##    country citation_group                n
##    <chr>   <chr>                     <int>
##  1 AT      citation ranking - high       2
##  2 AT      citation ranking - low        2
##  3 AT      citation ranking - medium     2
##  4 BR      citation ranking - high       4
##  5 BR      citation ranking - low        4
##  6 BR      citation ranking - medium     4
##  7 DE      citation ranking - high       4
##  8 DE      citation ranking - low        4
##  9 DE      citation ranking - medium     4
## 10 GB      citation ranking - high       8
## # ... with 11 more rows
```

```
## # A tibble: 21 x 3
## # Groups:   country [7]
##    country research_group                n
##    <chr>   <chr>                     <int>
##  1 AT      research ranking - high       2
##  2 AT      research ranking - low        2
##  3 AT      research ranking - medium     2
##  4 BR      research ranking - high       4
##  5 BR      research ranking - low        4
##  6 BR      research ranking - medium     4
##  7 DE      research ranking - high       4
##  8 DE      research ranking - low        4
##  9 DE      research ranking - medium     4
## 10 GB      research ranking - high       8
## # ... with 11 more rows
```
…
